<?xml version="1.0" encoding="UTF-8" standalone="no"?>
<svg width="21px" height="38px" viewBox="0 0 21 38" version="1.1" xmlns="http://www.w3.org/2000/svg" xmlns:xlink="http://www.w3.org/1999/xlink">
    <g stroke="none" stroke-width="1" fill="none" fill-rule="evenodd" stroke-linecap="square">
        <g transform="translate(-120.000000, -421.000000)" stroke-width="2" stroke="#747474">
            <polyline id="Line-Copy-3" points="122 457.066667 139.066667 440 122 422.933333"></polyline>
        </g>
    </g>
</svg>